Chapter 5 Análisis univariado | A Minimal Book Example
…
#tabla de frecuencia para MTRANS
tabla_MTRANS <- datos %>%
  count(MTRANS, name = "Frecuencia") %>%
  mutate(
    Porcentaje = round(Frecuencia / sum(Frecuencia) * 100, 2),
    Variable = "MTRANS",
    Categoria = MTRANS ) %>%
  select(Variable, Categoria, Frecuencia, Porcentaje)

# Unir todas las tablas
bind_rows(tabla_Gender, tabla_family_history_with_overweight, tabla_FAVC,tabla_CAEC,
          tabla_SMOKE, tabla_SCC,tabla_CALC, tabla_MTRANS)

## # A tibble: 23 × 4
##    Variable                       Categoria  Frecuencia Porcentaje
##    <chr>                          <chr>           <int>      <dbl>
##  1 Gender                         Female           1043      49.4 
##  2 Gender                         Male             1068      50.6 
##  3 family_history_with_overweight no                385      18.2 
##  4 family_history_with_overweight yes              1726      81.8 
##  5 FAVC                           no                245      11.6 
##  6 FAVC                           yes              1866      88.4 
##  7 CAEC                           Always             53       2.51
##  8 CAEC                           Frequently        242      11.5 
##  9 CAEC                           Sometimes        1765      83.6 
## 10 CAEC                           no                 51       2.42
## # ℹ 13 more rows
…
