Chapter 3 Análisis Exploratorio de Datos (EDA) | Análisis Estadístico de Factores Asociados a la Obesidad
…
#tabla de frecuencia para MTRANS
tabla_MTRANS <- datos %>%
  count(MTRANS, name = "Frecuencia") %>%
  mutate(
    Porcentaje = round(Frecuencia / sum(Frecuencia) * 100, 2),
    Variable = "MTRANS",
    Categoria = MTRANS ) %>%
  select(Variable, Categoria, Frecuencia, Porcentaje)

# Unir todas las tablas
bind_rows(tabla_Gender, tabla_family_history_with_overweight, tabla_FAVC,tabla_CAEC,
          tabla_SMOKE, tabla_SCC,tabla_CALC, tabla_MTRANS)

## # A tibble: 23 × 4
##    Variable       Categoria Frecuencia Porcentaje
##    <chr>          <chr>          <int>      <dbl>
##  1 Gender         Female          1043      49.4 
##  2 Gender         Male            1068      50.6 
##  3 family_histor… no               385      18.2 
##  4 family_histor… yes             1726      81.8 
##  5 FAVC           no               245      11.6 
##  6 FAVC           yes             1866      88.4 
##  7 CAEC           Always            53       2.51
##  8 CAEC           Frequent…        242      11.5 
##  9 CAEC           Sometimes       1765      83.6 
## 10 CAEC           no                51       2.42
## # ℹ 13 more rows
…
#Unión de las tablas
bind_rows(Age_NObeyesdad, Height_NObeyesdad, Weight_NObeyesdad, FCVC_NObeyesdad, NCP_NObeyesdad, CH2O_NObeyesdad, FAF_NObeyesdad, TUE_NObeyesdad)

## # A tibble: 56 × 11
##    variable niveles        n media     ds mediana
##    <chr>    <chr>      <int> <dbl>  <dbl>   <dbl>
##  1 Age      Insuffici…   272 19.8  2.67     19.2 
##  2 Age      Normal_We…   287 21.7  5.10     21   
##  3 Age      Obesity_T…   351 25.9  7.76     23.0 
##  4 Age      Obesity_T…   297 28.2  4.87     27.2 
##  5 Age      Obesity_T…   324 23.5  2.76     25.4 
##  6 Age      Overweigh…   290 23.4  6.13     21.0 
##  7 Age      Overweigh…   290 27.0  8.06     24   
##  8 Height   Insuffici…   272  1.69 0.0997    1.70
##  9 Height   Normal_We…   287  1.68 0.0945    1.66
## 10 Height   Obesity_T…   351  1.69 0.0984    1.68
## # ℹ 46 more rows
## # ℹ 5 more variables: minimo <dbl>,
## #   maximo <dbl>, Q1 <dbl>, Q3 <dbl>, IQR <dbl>
…
El consumo de alimentos con alta densidad calórica presenta una relación directamente proporcional con el grado de obesidad. En peso insuficiente, solo el 18.8% reporta consumirlos frecuentemente, mientras que en peso normal el 72.5% lo hace. En los grupos con obesidad, el consumo es casi universal, superando el 95% y alcanzando el 99.7% en obesidad tipo III. Este hallazgo resalta el papel del consumo habitual de alimentos hipercalóricos como un factor conductual clave en la aparición y mantenimiento de la obesidad.

datos %>%
  group_by(NObeyesdad) %>%
  count(CAEC, name = "n") %>%
  mutate(categoria = CAEC,
         variable = "CAEC",
         porcentaje = (n / sum(n)) * 100) %>%
  select(NObeyesdad, variable, categoria, n, porcentaje)

## # A tibble: 26 × 5
## # Groups:   NObeyesdad [7]
##    NObeyesdad variable categoria     n porcentaje
##    <chr>      <chr>    <chr>     <int>      <dbl>
##  1 Insuffici… CAEC     Always        2      0.735
##  2 Insuffici… CAEC     Frequent…   121     44.5  
##  3 Insuffici… CAEC     Sometimes   146     53.7  
##  4 Insuffici… CAEC     no            3      1.10 
##  5 Normal_We… CAEC     Always       35     12.2  
##  6 Normal_We… CAEC     Frequent…    83     28.9  
##  7 Normal_We… CAEC     Sometimes   159     55.4  
##  8 Normal_We… CAEC     no           10      3.48 
##  9 Obesity_T… CAEC     Always        6      1.71 
## 10 Obesity_T… CAEC     Frequent…     6      1.71 
## # ℹ 16 more rows
…
La práctica de monitorear la ingesta calórica es poco común en general, pero decrece drásticamente en los niveles más altos de obesidad. En peso insuficiente y normal, un 8.09% y 10.5% respectivamente sí monitorean, mientras que en obesidad tipo I, II y III más del 99% no lo hace. El sobrepeso muestra el porcentaje más alto de monitoreo (12.8%), aunque sigue siendo bajo. Este hallazgo es paradójico, ya que las personas con mayor obesidad —quienes potencialmente se beneficiarían más del control calórico— son las que menos lo practican. Esto podría deberse a falta de conciencia, abandono de hábitos tras intentos fallidos o escasa educación nutricional.

datos %>%
  group_by(NObeyesdad) %>%
  count(CALC, name = "n") %>%
  mutate(categoria = CALC,
         variable = "CALC",
         porcentaje = (n / sum(n)) * 100) %>%
  select(NObeyesdad, variable, categoria, n, porcentaje)

## # A tibble: 21 × 5
## # Groups:   NObeyesdad [7]
##    NObeyesdad variable categoria     n porcentaje
##    <chr>      <chr>    <chr>     <int>      <dbl>
##  1 Insuffici… CALC     Frequent…     1      0.368
##  2 Insuffici… CALC     Sometimes   154     56.6  
##  3 Insuffici… CALC     no          117     43.0  
##  4 Normal_We… CALC     Always        1      0.348
##  5 Normal_We… CALC     Frequent…    18      6.27 
##  6 Normal_We… CALC     Sometimes   161     56.1  
##  7 Normal_We… CALC     no          107     37.3  
##  8 Obesity_T… CALC     Frequent…    14      3.99 
##  9 Obesity_T… CALC     Sometimes   172     49.0  
## 10 Obesity_T… CALC     no          165     47.0  
## # ℹ 11 more rows

Los patrones de consumo calórico muestran que la categoría “A veces” es predominante en la mayoría de los grupos: 56.6% en peso insuficiente, 56.1% en peso normal y 49.0% en obesidad tipo I. El consumo frecuente es muy bajo, con 0.368% en peso insuficiente, 6.27% en peso normal y 3.99% en obesidad tipo I. En cambio, la categoría “No” (no consumir regularmente) es más alta en obesidad tipo I (47.0%) que en peso normal (37.3%) o insuficiente (43.0%). Estos datos muestran un patrón heterogéneo y complejo, donde la frecuencia de consumo no se asocia de forma lineal con el grado de obesidad, pero sí revela diferencias en hábitos alimentarios.

datos %>%
  group_by(NObeyesdad) %>%
  count(MTRANS, name = "n") %>%
  mutate(categoria = MTRANS,
         variable = "MTRANS",
         porcentaje = (n / sum(n)) * 100) %>%
  select(NObeyesdad, variable, categoria, n, porcentaje)

## # A tibble: 27 × 5
## # Groups:   NObeyesdad [7]
##    NObeyesdad variable categoria     n porcentaje
##    <chr>      <chr>    <chr>     <int>      <dbl>
##  1 Insuffici… MTRANS   Automobi…    46     16.9  
##  2 Insuffici… MTRANS   Public_T…   220     80.9  
##  3 Insuffici… MTRANS   Walking       6      2.21 
##  4 Normal_We… MTRANS   Automobi…    45     15.7  
##  5 Normal_We… MTRANS   Bike          4      1.39 
##  6 Normal_We… MTRANS   Motorbike     6      2.09 
##  7 Normal_We… MTRANS   Public_T…   200     69.7  
##  8 Normal_We… MTRANS   Walking      32     11.1  
##  9 Obesity_T… MTRANS   Automobi…   110     31.3  
## 10 Obesity_T… MTRANS   Motorbike     3      0.855
## # ℹ 17 more rows
…
